sbox_polynomial/sbox_polynomial.sim/sim_1/synth/timing/xsim/simulate.log
Vivado Simulator 2018.3
Time resolution is 1 ps
simtime = 1, datain =00000001, dataout =xxxxxxxx dataoutest =01111100
simtime = 2, datain =00000010, dataout =xxxxxxxx dataoutest =01110111
simtime = 3, datain =00000011, dataout =xxxxxxxx dataoutest =01111011
simtime = 4, datain =00000100, dataout =xxxxxxxx dataoutest =11110010
simtime = 5, datain =00000101, dataout =xxxxxxxx dataoutest =01101011
simtime = 5, datain =00000101, dataout =011xxx11 dataoutest =01101011
simtime = 5, datain =00000101, dataout =01100011 dataoutest =01101011
simtime = 6, datain =00000101, dataout =01100001 dataoutest =01101011
simtime = 6, datain =00000110, dataout =01100001 dataoutest =01101111
simtime = 6, datain =00000110, dataout =01100000 dataoutest =01101111
simtime = 6, datain =00000110, dataout =01100100 dataoutest =01101111
simtime = 7, datain =00000110, dataout =01100110 dataoutest =01101111
simtime = 7, datain =00000111, dataout =01100110 dataoutest =11000101
simtime = 7, datain =00000111, dataout =01100111 dataoutest =11000101
simtime = 7, datain =00000111, dataout =01110111 dataoutest =11000101
simtime = 7, datain =00000111, dataout =01110110 dataoutest =11000101
simtime = 8, datain =00001000, dataout =01110110 dataoutest =00110000
simtime = 8, datain =00001000, dataout =01110111 dataoutest =00110000
simtime = 8, datain =00001000, dataout =01111011 dataoutest =00110000
simtime = 9, datain =00001001, dataout =01111011 dataoutest =00000001
simtime = 9, datain =00001001, dataout =01011010 dataoutest =00000001
simtime = 9, datain =00001001, dataout =00000101 dataoutest =00000001
simtime = 10, datain =00001001, dataout =00100101 dataoutest =00000001
simtime = 10, datain =00001001, dataout =00110111 dataoutest =00000001
simtime = 10, datain =00001010, dataout =00110111 dataoutest =01100111
simtime = 10, datain =00001010, dataout =10110111 dataoutest =01100111
simtime = 10, datain =00001010, dataout =11110011 dataoutest =01100111
simtime = 11, datain =00001010, dataout =11010011 dataoutest =01100111
simtime = 11, datain =00001010, dataout =11000001 dataoutest =01100111
simtime = 11, datain =00001011, dataout =11000001 dataoutest =00101011
simtime = 11, datain =00001011, dataout =11000011 dataoutest =00101011
simtime = 11, datain =00001011, dataout =00000011 dataoutest =00101011
simtime = 11, datain =00001011, dataout =00001011 dataoutest =00101011
simtime = 12, datain =00001011, dataout =00011001 dataoutest =00101011
simtime = 12, datain =00001100, dataout =00011001 dataoutest =11111110
simtime = 12, datain =00001100, dataout =00011000 dataoutest =11111110
simtime = 12, datain =00001100, dataout =11011000 dataoutest =11111110
simtime = 12, datain =00001100, dataout =11011100 dataoutest =11111110
simtime = 12, datain =00001100, dataout =11010100 dataoutest =11111110
simtime = 13, datain =00001100, dataout =01001110 dataoutest =11111110
simtime = 13, datain =00001101, dataout =01001110 dataoutest =11010111
simtime = 13, datain =00001101, dataout =01101101 dataoutest =11010111
simtime = 13, datain =00001101, dataout =11101101 dataoutest =11010111
simtime = 13, datain =00001101, dataout =10001000 dataoutest =11010111
simtime = 14, datain =00001110, dataout =10001000 dataoutest =10101011
simtime = 14, datain =00001110, dataout =00001000 dataoutest =10101011
simtime = 14, datain =00001110, dataout =00000000 dataoutest =10101011
simtime = 15, datain =00001111, dataout =00000000 dataoutest =01110110
simtime = 15, datain =00001111, dataout =00000010 dataoutest =01110110
simtime = 15, datain =00001111, dataout =00100010 dataoutest =01110110
simtime = 15, datain =00001111, dataout =10100010 dataoutest =01110110
simtime = 15, datain =00001111, dataout =10101010 dataoutest =01110110
simtime = 15, datain =00001111, dataout =10111110 dataoutest =01110110
simtime = 16, datain =00010000, dataout =10111110 dataoutest =11001010
simtime = 16, datain =00010000, dataout =10111111 dataoutest =11001010
simtime = 16, datain =00010000, dataout =10011111 dataoutest =11001010
simtime = 16, datain =00010000, dataout =00011111 dataoutest =11001010
simtime = 16, datain =00010000, dataout =00011011 dataoutest =11001010
simtime = 17, datain =00010001, dataout =00011011 dataoutest =10000010
simtime = 17, datain =00010001, dataout =00011000 dataoutest =10000010
simtime = 17, datain =00010001, dataout =10011000 dataoutest =10000010
simtime = 17, datain =00010001, dataout =10010000 dataoutest =10000010
simtime = 17, datain =00010001, dataout =11010000 dataoutest =10000010
simtime = 18, datain =00010001, dataout =11010010 dataoutest =10000010
simtime = 18, datain =00010010, dataout =11010010 dataoutest =11001001
simtime = 18, datain =00010010, dataout =11010011 dataoutest =11001001
simtime = 18, datain =00010010, dataout =11010111 dataoutest =11001001
simtime = 19, datain =00010010, dataout =10010101 dataoutest =11001001
simtime = 19, datain =00010011, dataout =10010101 dataoutest =01111101
simtime = 19, datain =00010011, dataout =10010110 dataoutest =01111101
simtime = 19, datain =00010011, dataout =10110110 dataoutest =01111101
simtime = 19, datain =00010011, dataout =10111110 dataoutest =01111101
simtime = 19, datain =00010011, dataout =10101011 dataoutest =01111101
simtime = 20, datain =00010011, dataout =10111001 dataoutest =01111101
simtime = 20, datain =00010100, dataout =10111001 dataoutest =11111010
simtime = 20, datain =00010100, dataout =10111000 dataoutest =11111010
simtime = 20, datain =00010100, dataout =00111000 dataoutest =11111010
simtime = 21, datain =00010100, dataout =00011000 dataoutest =11111010
simtime = 21, datain =00010100, dataout =11000010 dataoutest =11111010
simtime = 21, datain =00010101, dataout =11000010 dataoutest =01011001
simtime = 21, datain =00010101, dataout =11000001 dataoutest =01011001
simtime = 21, datain =00010101, dataout =11001011 dataoutest =01011001
simtime = 22, datain =00010110, dataout =11001011 dataoutest =01000111
simtime = 22, datain =00010110, dataout =11001010 dataoutest =01000111
simtime = 22, datain =00010110, dataout =10000010 dataoutest =01000111
simtime = 23, datain =00010111, dataout =10000010 dataoutest =11110000
simtime = 23, datain =00010111, dataout =10000011 dataoutest =11110000
simtime = 23, datain =00010111, dataout =10010011 dataoutest =11110000
simtime = 23, datain =00010111, dataout =10011010 dataoutest =11110000
simtime = 24, datain =00010111, dataout =00011010 dataoutest =11110000
simtime = 24, datain =00010111, dataout =00011000 dataoutest =11110000
simtime = 24, datain =00011000, dataout =00011000 dataoutest =10101101
simtime = 24, datain =00011000, dataout =00011001 dataoutest =10101101
simtime = 25, datain =00011000, dataout =10011001 dataoutest =10101101
simtime = 25, datain =00011000, dataout =10011011 dataoutest =10101101
simtime = 25, datain =00011001, dataout =10011011 dataoutest =11010100
simtime = 25, datain =00011001, dataout =10111010 dataoutest =11010100
simtime = 25, datain =00011001, dataout =11111011 dataoutest =11010100
simtime = 26, datain =00011001, dataout =11101001 dataoutest =11010100
simtime = 26, datain =00011010, dataout =11101001 dataoutest =10100010
simtime = 26, datain =00011010, dataout =11101101 dataoutest =10100010
simtime = 26, datain =00011010, dataout =10100101 dataoutest =10100010
simtime = 27, datain =00011010, dataout =10000101 dataoutest =10100010
simtime = 27, datain =00011010, dataout =11010111 dataoutest =10100010
simtime = 27, datain =00011011, dataout =11010111 dataoutest =10101111
simtime = 27, datain =00011011, dataout =11010101 dataoutest =10101111
simtime = 27, datain =00011011, dataout =11010001 dataoutest =10101111
simtime = 27, datain =00011011, dataout =11000000 dataoutest =10101111
simtime = 28, datain =00011011, dataout =01000000 dataoutest =10101111
simtime = 28, datain =00011011, dataout =01100000 dataoutest =10101111
simtime = 28, datain =00011011, dataout =01100010 dataoutest =10101111
simtime = 28, datain =00011100, dataout =01100010 dataoutest =10011100
simtime = 28, datain =00011100, dataout =01100011 dataoutest =10011100
simtime = 29, datain =00011100, dataout =11100011 dataoutest =10011100
simtime = 29, datain =00011100, dataout =10100001 dataoutest =10011100
simtime = 29, datain =00011101, dataout =10100001 dataoutest =10100100
simtime = 29, datain =00011101, dataout =10000010 dataoutest =10100100
simtime = 29, datain =00011101, dataout =10100010 dataoutest =10100100
simtime = 29, datain =00011101, dataout =10101110 dataoutest =10100100
simtime = 29, datain =00011101, dataout =10101100 dataoutest =10100100
simtime = 30, datain =00011110, dataout =10101100 dataoutest =01110010
simtime = 30, datain =00011110, dataout =10101101 dataoutest =01110010
simtime = 30, datain =00011110, dataout =10100101 dataoutest =01110010
simtime = 30, datain =00011110, dataout =11100101 dataoutest =01110010
simtime = 30, datain =00011110, dataout =11000101 dataoutest =01110010
simtime = 31, datain =00011110, dataout =10000101 dataoutest =01110010
simtime = 31, datain =00011111, dataout =10000101 dataoutest =11000000
simtime = 31, datain =00011111, dataout =10000100 dataoutest =11000000
simtime = 31, datain =00011111, dataout =10010100 dataoutest =11000000
simtime = 31, datain =00011111, dataout =10011000 dataoutest =11000000
simtime = 31, datain =00011111, dataout =10111001 dataoutest =11000000
simtime = 32, datain =00011111, dataout =10111011 dataoutest =11000000
simtime = 32, datain =00100000, dataout =10111011 dataoutest =10110111
simtime = 32, datain =00100000, dataout =10111010 dataoutest =10110111
simtime = 32, datain =00100000, dataout =00111010 dataoutest =10110111
simtime = 32, datain =00100000, dataout =00110010 dataoutest =10110111
simtime = 33, datain =00100000, dataout =01110000 dataoutest =10110111
simtime = 33, datain =00100001, dataout =01110000 dataoutest =11111101
simtime = 33, datain =00100001, dataout =01010001 dataoutest =11111101
simtime = 33, datain =00100001, dataout =11010001 dataoutest =11111101
simtime = 33, datain =00100001, dataout =11011101 dataoutest =11111101
simtime = 33, datain =00100001, dataout =10011101 dataoutest =11111101
simtime = 33, datain =00100001, dataout =10111101 dataoutest =11111101
simtime = 34, datain =00100001, dataout =10101101 dataoutest =11111101
simtime = 34, datain =00100010, dataout =10101101 dataoutest =10010011
simtime = 34, datain =00100010, dataout =01101101 dataoutest =10010011
simtime = 34, datain =00100010, dataout =01100001 dataoutest =10010011
simtime = 35, datain =00100010, dataout =01110001 dataoutest =10010011
simtime = 35, datain =00100011, dataout =01110001 dataoutest =00100110
simtime = 35, datain =00100011, dataout =01110011 dataoutest =00100110
simtime = 35, datain =00100011, dataout =01110010 dataoutest =00100110
simtime = 36, datain =00100011, dataout =01100000 dataoutest =00100110
simtime = 36, datain =00100100, dataout =01100000 dataoutest =00110110
simtime = 36, datain =00100100, dataout =01100001 dataoutest =00110110
simtime = 36, datain =00100100, dataout =11100001 dataoutest =00110110
simtime = 37, datain =00100100, dataout =11000001 dataoutest =00110110
simtime = 37, datain =00100100, dataout =11010010 dataoutest =00110110
simtime = 37, datain =00100100, dataout =11010011 dataoutest =00110110
simtime = 37, datain =00100101, dataout =11010011 dataoutest =00111111
simtime = 37, datain =00100101, dataout =11111001 dataoutest =00111111
simtime = 37, datain =00100101, dataout =11111000 dataoutest =00111111
simtime = 37, datain =00100101, dataout =11011010 dataoutest =00111111
simtime = 37, datain =00100101, dataout =11011110 dataoutest =00111111
simtime = 38, datain =00100101, dataout =11010110 dataoutest =00111111
simtime = 38, datain =00100101, dataout =11000100 dataoutest =00111111
simtime = 38, datain =00100110, dataout =11000100 dataoutest =11110111
simtime = 38, datain =00100110, dataout =01100100 dataoutest =11110111
simtime = 38, datain =00100110, dataout =01100000 dataoutest =11110111
simtime = 39, datain =00100110, dataout =01101000 dataoutest =11110111
simtime = 39, datain =00100110, dataout =00111010 dataoutest =11110111
simtime = 39, datain =00100111, dataout =00111010 dataoutest =11001100
simtime = 39, datain =00100111, dataout =00111000 dataoutest =11001100
simtime = 39, datain =00100111, dataout =11111000 dataoutest =11001100
simtime = 40, datain =00100111, dataout =11110000 dataoutest =11001100
simtime = 40, datain =00100111, dataout =11100010 dataoutest =11001100
simtime = 40, datain =00101000, dataout =11100010 dataoutest =00110100
simtime = 40, datain =00101000, dataout =10100010 dataoutest =00110100
simtime = 40, datain =00101000, dataout =00100110 dataoutest =00110100
simtime = 41, datain =00101000, dataout =01110100 dataoutest =00110100
simtime = 41, datain =00101001, dataout =01110100 dataoutest =10100101
simtime = 41, datain =00101001, dataout =01110110 dataoutest =10100101
simtime = 41, datain =00101001, dataout =01010110 dataoutest =10100101
simtime = 41, datain =00101001, dataout =11010111 dataoutest =10100101
simtime = 41, datain =00101001, dataout =11010101 dataoutest =10100101
simtime = 41, datain =00101001, dataout =10010001 dataoutest =10100101
simtime = 42, datain =00101001, dataout =10010011 dataoutest =10100101
simtime = 42, datain =00101010, dataout =10010011 dataoutest =11100101
simtime = 42, datain =00101010, dataout =10010111 dataoutest =11100101
simtime = 43, datain =00101010, dataout =11010101 dataoutest =11100101
simtime = 43, datain =00101011, dataout =11010101 dataoutest =11110001
simtime = 43, datain =00101011, dataout =11010111 dataoutest =11110001
simtime = 43, datain =00101011, dataout =11000111 dataoutest =11110001
simtime = 43, datain =00101011, dataout =10000110 dataoutest =11110001
simtime = 43, datain =00101011, dataout =10000010 dataoutest =11110001
simtime = 43, datain =00101011, dataout =10001010 dataoutest =11110001
simtime = 44, datain =00101011, dataout =10001000 dataoutest =11110001
simtime = 44, datain =00101100, dataout =10001000 dataoutest =01110001
simtime = 44, datain =00101100, dataout =11001000 dataoutest =01110001
simtime = 44, datain =00101100, dataout =11001100 dataoutest =01110001
simtime = 45, datain =00101100, dataout =00001110 dataoutest =01110001
simtime = 45, datain =00101101, dataout =00001110 dataoutest =11011000
simtime = 45, datain =00101101, dataout =00101100 dataoutest =11011000
simtime = 45, datain =00101101, dataout =00101110 dataoutest =11011000
simtime = 45, datain =00101101, dataout =00100110 dataoutest =11011000
simtime = 45, datain =00101101, dataout =00000110 dataoutest =11011000
simtime = 45, datain =00101101, dataout =00000010 dataoutest =11011000
simtime = 46, datain =00101101, dataout =00000011 dataoutest =11011000
simtime = 46, datain =00101110, dataout =00000011 dataoutest =00110001
simtime = 46, datain =00101110, dataout =10000011 dataoutest =00110001
simtime = 47, datain =00101110, dataout =10000001 dataoutest =00110001
simtime = 47, datain =00101110, dataout =10000000 dataoutest =00110001
simtime = 47, datain =00101111, dataout =10000000 dataoutest =00010101
simtime = 47, datain =00101111, dataout =10100000 dataoutest =00010101
simtime = 47, datain =00101111, dataout =10100001 dataoutest =00010101
simtime = 47, datain =00101111, dataout =10100101 dataoutest =00010101
simtime = 48, datain =00101111, dataout =11100101 dataoutest =00010101
simtime = 48, datain =00101111, dataout =11110111 dataoutest =00010101
simtime = 48, datain =00110000, dataout =11110111 dataoutest =00000100
simtime = 48, datain =00110000, dataout =11010111 dataoutest =00000100
simtime = 48, datain =00110000, dataout =11010011 dataoutest =00000100
simtime = 49, datain =00110000, dataout =10010011 dataoutest =00000100
simtime = 49, datain =00110000, dataout =10000011 dataoutest =00000100
simtime = 49, datain =00110001, dataout =10000011 dataoutest =11000111
simtime = 49, datain =00110001, dataout =10100011 dataoutest =11000111
simtime = 49, datain =00110001, dataout =00110011 dataoutest =11000111
simtime = 49, datain =00110001, dataout =00110001 dataoutest =11000111
simtime = 49, datain =00110001, dataout =01110001 dataoutest =11000111
simtime = 50, datain =00110001, dataout =01110011 dataoutest =11000111
simtime = 50, datain =00110010, dataout =01110011 dataoutest =00100011
simtime = 50, datain =00110010, dataout =00110111 dataoutest =00100011
simtime = 51, datain =00110010, dataout =00010111 dataoutest =00100011
simtime = 51, datain =00110010, dataout =01010101 dataoutest =00100011
simtime = 51, datain =00110011, dataout =01010101 dataoutest =11000011
simtime = 51, datain =00110011, dataout =01010111 dataoutest =11000011
simtime = 51, datain =00110011, dataout =01110111 dataoutest =11000011
simtime = 51, datain =00110011, dataout =01111110 dataoutest =11000011
simtime = 51, datain =00110011, dataout =01101010 dataoutest =11000011
simtime = 52, datain =00110011, dataout =01101000 dataoutest =11000011
simtime = 52, datain =00110011, dataout =01101001 dataoutest =11000011
simtime = 52, datain =00110100, dataout =01101001 dataoutest =00011000
simtime = 53, datain =00110100, dataout =10101111 dataoutest =00011000
simtime = 53, datain =00110100, dataout =00101110 dataoutest =00011000
simtime = 53, datain =00110101, dataout =00101110 dataoutest =10010110
simtime = 53, datain =00110101, dataout =00001100 dataoutest =10010110
simtime = 53, datain =00110101, dataout =10101100 dataoutest =10010110
simtime = 54, datain =00110101, dataout =10101000 dataoutest =10010110
simtime = 54, datain =00110101, dataout =10111000 dataoutest =10010110
simtime = 54, datain =00110110, dataout =10111000 dataoutest =00000101
simtime = 55, datain =00110110, dataout =10111100 dataoutest =00000101
simtime = 55, datain =00110110, dataout =10110100 dataoutest =00000101
simtime = 55, datain =00110110, dataout =11101100 dataoutest =00000101
simtime = 55, datain =00110111, dataout =11101100 dataoutest =10011010
simtime = 55, datain =00110111, dataout =11101110 dataoutest =10011010
simtime = 55, datain =00110111, dataout =11100110 dataoutest =10011010
simtime = 56, datain =00110111, dataout =11100010 dataoutest =10011010
simtime = 56, datain =00110111, dataout =11101010 dataoutest =10011010
simtime = 56, datain =00110111, dataout =11101000 dataoutest =10011010
simtime = 56, datain =00111000, dataout =11101000 dataoutest =00000111
simtime = 56, datain =00111000, dataout =01101000 dataoutest =00000111
simtime = 57, datain =00111000, dataout =01101100 dataoutest =00000111
simtime = 57, datain =00111000, dataout =00101110 dataoutest =00000111
simtime = 57, datain =00111001, dataout =00101110 dataoutest =00010010
simtime = 57, datain =00111001, dataout =00001100 dataoutest =00010010
simtime = 57, datain =00111001, dataout =01001110 dataoutest =00010010
simtime = 58, datain =00111001, dataout =11001110 dataoutest =00010010
simtime = 58, datain =00111001, dataout =11101110 dataoutest =00010010
simtime = 58, datain =00111001, dataout =11111110 dataoutest =00010010
simtime = 58, datain =00111001, dataout =11111111 dataoutest =00010010
simtime = 58, datain =00111010, dataout =11111111 dataoutest =10000000
simtime = 58, datain =00111010, dataout =10111111 dataoutest =10000000
simtime = 59, datain =00111010, dataout =00111111 dataoutest =10000000
simtime = 59, datain =00111010, dataout =01101111 dataoutest =10000000
simtime = 59, datain =00111010, dataout =01101110 dataoutest =10000000
simtime = 59, datain =00111011, dataout =01101110 dataoutest =11100010
simtime = 59, datain =00111011, dataout =01101100 dataoutest =11100010
simtime = 59, datain =00111011, dataout =01101101 dataoutest =11100010
simtime = 59, datain =00111011, dataout =00101101 dataoutest =11100010
simtime = 60, datain =00111011, dataout =00111111 dataoutest =11100010
simtime = 60, datain =00111011, dataout =00111110 dataoutest =11100010
simtime = 60, datain =00111100, dataout =00111110 dataoutest =11101011
simtime = 60, datain =00111100, dataout =01111110 dataoutest =11101011
simtime = 61, datain =00111100, dataout =01111010 dataoutest =11101011
simtime = 61, datain =00111100, dataout =01011010 dataoutest =11101011
simtime = 61, datain =00111100, dataout =00000000 dataoutest =11101011
simtime = 61, datain =00111100, dataout =00000001 dataoutest =11101011
simtime = 61, datain =00111101, dataout =00000001 dataoutest =00100111
simtime = 61, datain =00111101, dataout =00100011 dataoutest =00100111
simtime = 61, datain =00111101, dataout =10100011 dataoutest =00100111
simtime = 61, datain =00111101, dataout =10101011 dataoutest =00100111
simtime = 61, datain =00111101, dataout =11001001 dataoutest =00100111
simtime = 61, datain =00111101, dataout =11101001 dataoutest =00100111
simtime = 62, datain =00111101, dataout =11110011 dataoutest =00100111
simtime = 62, datain =00111101, dataout =11110010 dataoutest =00100111
simtime = 62, datain =00111110, dataout =11110010 dataoutest =10110010
simtime = 62, datain =00111110, dataout =10110010 dataoutest =10110010
simtime = 62, datain =00111110, dataout =10010010 dataoutest =10110010
simtime = 63, datain =00111110, dataout =11001000 dataoutest =10110010
simtime = 63, datain =00111110, dataout =11001001 dataoutest =10110010
simtime = 63, datain =00111111, dataout =11001001 dataoutest =01110101
simtime = 63, datain =00111111, dataout =11000001 dataoutest =01110101
simtime = 63, datain =00111111, dataout =11000000 dataoutest =01110101
simtime = 64, datain =00111111, dataout =10000000 dataoutest =01110101
simtime = 64, datain =00111111, dataout =10010000 dataoutest =01110101
simtime = 64, datain =00111111, dataout =10010001 dataoutest =01110101
simtime = 64, datain =01000000, dataout =10010001 dataoutest =00001001
simtime = 64, datain =01000000, dataout =10110001 dataoutest =00001001
simtime = 65, datain =01000000, dataout =11110001 dataoutest =00001001
simtime = 65, datain =01000000, dataout =10100001 dataoutest =00001001
simtime = 65, datain =01000000, dataout =10100000 dataoutest =00001001
simtime = 65, datain =01000001, dataout =10100000 dataoutest =10000011
simtime = 65, datain =01000001, dataout =00100000 dataoutest =10000011
simtime = 65, datain =01000001, dataout =00100010 dataoutest =10000011
simtime = 66, datain =01000001, dataout =00110010 dataoutest =10000011
simtime = 66, datain =01000010, dataout =00110010 dataoutest =00101100
simtime = 66, datain =01000010, dataout =00110011 dataoutest =00101100
simtime = 67, datain =01000010, dataout =00110111 dataoutest =00101100
simtime = 67, datain =01000010, dataout =01100111 dataoutest =00101100
simtime = 67, datain =01000011, dataout =01100111 dataoutest =00011010
simtime = 67, datain =01000011, dataout =01100101 dataoutest =00011010
simtime = 67, datain =01000011, dataout =11100100 dataoutest =00011010
simtime = 67, datain =01000011, dataout =11101101 dataoutest =00011010
simtime = 68, datain =01000011, dataout =11111101 dataoutest =00011010
simtime = 68, datain =01000011, dataout =11111100 dataoutest =00011010
simtime = 68, datain =01000100, dataout =11111100 dataoutest =00011011
simtime = 68, datain =01000100, dataout =01111100 dataoutest =00011011
simtime = 68, datain =01000100, dataout =01110100 dataoutest =00011011
simtime = 69, datain =01000100, dataout =00101011 dataoutest =00011011
simtime = 69, datain =01000100, dataout =10101011 dataoutest =00011011
simtime = 69, datain =01000101, dataout =10101011 dataoutest =01101110
simtime = 69, datain =01000101, dataout =10100110 dataoutest =01101110
simtime = 69, datain =01000101, dataout =00100110 dataoutest =01101110
simtime = 69, datain =01000101, dataout =01101100 dataoutest =01101110
simtime = 69, datain =01000101, dataout =01001100 dataoutest =01101110
simtime = 70, datain =01000101, dataout =01001000 dataoutest =01101110
simtime = 70, datain =01000110, dataout =01001000 dataoutest =01011010
simtime = 70, datain =01000110, dataout =01101000 dataoutest =01011010
simtime = 70, datain =01000110, dataout =11101000 dataoutest =01011010
simtime = 70, datain =01000110, dataout =10100000 dataoutest =01011010
simtime = 71, datain =01000110, dataout =10100100 dataoutest =01011010
simtime = 71, datain =01000111, dataout =10100100 dataoutest =10100000
simtime = 71, datain =01000111, dataout =00100100 dataoutest =10100000
simtime = 71, datain =01000111, dataout =10100100 dataoutest =10100000
simtime = 71, datain =01000111, dataout =10101101 dataoutest =10100000
simtime = 72, datain =01000111, dataout =10101001 dataoutest =10100000
simtime = 72, datain =01000111, dataout =10101011 dataoutest =10100000
simtime = 72, datain =01001000, dataout =10101011 dataoutest =01010010
simtime = 72, datain =01001000, dataout =10101010 dataoutest =01010010
simtime = 72, datain =01001000, dataout =00101010 dataoutest =01010010
simtime = 73, datain =01001000, dataout =00101000 dataoutest =01010010
simtime = 73, datain =01001001, dataout =00101000 dataoutest =00111011
simtime = 73, datain =01001001, dataout =00101001 dataoutest =00111011
simtime = 73, datain =01001001, dataout =00001001 dataoutest =00111011
simtime = 73, datain =01001001, dataout =11001000 dataoutest =00111011
simtime = 74, datain =01001001, dataout =11001010 dataoutest =00111011
simtime = 74, datain =01001010, dataout =11001010 dataoutest =11010110
simtime = 74, datain =01001010, dataout =11001011 dataoutest =11010110
simtime = 74, datain =01001010, dataout =11101011 dataoutest =11010110
simtime = 74, datain =01001010, dataout =01101011 dataoutest =11010110
simtime = 75, datain =01001010, dataout =01101111 dataoutest =11010110
simtime = 75, datain =01001010, dataout =00101101 dataoutest =11010110
simtime = 75, datain =01001011, dataout =00101101 dataoutest =10110011
simtime = 75, datain =01001011, dataout =00101110 dataoutest =10110011
simtime = 75, datain =01001011, dataout =10101110 dataoutest =10110011
simtime = 76, datain =01001011, dataout =10011010 dataoutest =10110011
simtime = 76, datain =01001011, dataout =10001000 dataoutest =10110011
simtime = 76, datain =01001100, dataout =10001000 dataoutest =00101001
simtime = 76, datain =01001100, dataout =10101000 dataoutest =00101001
simtime = 76, datain =01001100, dataout =10100000 dataoutest =00101001
simtime = 77, datain =01001100, dataout =01011010 dataoutest =00101001
simtime = 77, datain =01001101, dataout =01011010 dataoutest =11100011
simtime = 77, datain =01001101, dataout =01111000 dataoutest =11100011
simtime = 77, datain =01001101, dataout =01111010 dataoutest =11100011
simtime = 77, datain =01001101, dataout =01110010 dataoutest =11100011
simtime = 77, datain =01001101, dataout =01010010 dataoutest =11100011
simtime = 78, datain =01001101, dataout =01000010 dataoutest =11100011
simtime = 78, datain =01001110, dataout =01000010 dataoutest =00101111
simtime = 78, datain =01001110, dataout =01000011 dataoutest =00101111
simtime = 78, datain =01001110, dataout =01001011 dataoutest =00101111
simtime = 79, datain =01001110, dataout =01001111 dataoutest =00101111
simtime = 79, datain =01001110, dataout =00011101 dataoutest =00101111
simtime = 79, datain =01001111, dataout =00011101 dataoutest =10000100
simtime = 79, datain =01001111, dataout =00011110 dataoutest =10000100
simtime = 79, datain =01001111, dataout =10011110 dataoutest =10000100
simtime = 79, datain =01001111, dataout =10010110 dataoutest =10000100
simtime = 79, datain =01001111, dataout =10110110 dataoutest =10000100
simtime = 80, datain =01010000, dataout =10110110 dataoutest =01010011
simtime = 80, datain =01010000, dataout =10110111 dataoutest =01010011
simtime = 80, datain =01010000, dataout =10110011 dataoutest =01010011
simtime = 81, datain =01010000, dataout =11110011 dataoutest =01010011
simtime = 81, datain =01010001, dataout =11110011 dataoutest =11010001
simtime = 81, datain =01010001, dataout =11010010 dataoutest =11010001
simtime = 81, datain =01010001, dataout =01011000 dataoutest =11010001
simtime = 81, datain =01010001, dataout =00011000 dataoutest =11010001
simtime = 82, datain =01010001, dataout =00101000 dataoutest =11010001
simtime = 82, datain =01010001, dataout =00100010 dataoutest =11010001
simtime = 82, datain =01010010, dataout =00100010 dataoutest =00000000
simtime = 82, datain =01010010, dataout =11100010 dataoutest =00000000
simtime = 83, datain =01010010, dataout =11101000 dataoutest =00000000
simtime = 83, datain =01010011, dataout =11101000 dataoutest =11101101
simtime = 83, datain =01010011, dataout =11101010 dataoutest =11101101
simtime = 83, datain =01010011, dataout =01100010 dataoutest =11101101
simtime = 83, datain =01010011, dataout =11100010 dataoutest =11101101
simtime = 83, datain =01010011, dataout =11100011 dataoutest =11101101
simtime = 84, datain =01010011, dataout =11000011 dataoutest =11101101
simtime = 84, datain =01010011, dataout =11010001 dataoutest =11101101
simtime = 84, datain =01010100, dataout =11010001 dataoutest =00100000
simtime = 84, datain =01010100, dataout =11011001 dataoutest =00100000
simtime = 84, datain =01010100, dataout =01011001 dataoutest =00100000
simtime = 85, datain =01010100, dataout =11100111 dataoutest =00100000
simtime = 85, datain =01010100, dataout =01100111 dataoutest =00100000
simtime = 85, datain =01010101, dataout =01100111 dataoutest =11111100
simtime = 85, datain =01010101, dataout =01100101 dataoutest =11111100
simtime = 85, datain =01010101, dataout =01100001 dataoutest =11111100
simtime = 85, datain =01010101, dataout =01101001 dataoutest =11111100
simtime = 86, datain =01010101, dataout =11101001 dataoutest =11111100
simtime = 86, datain =01010101, dataout =11111001 dataoutest =11111100
simtime = 86, datain =01010101, dataout =11111011 dataoutest =11111100
simtime = 86, datain =01010110, dataout =11111011 dataoutest =10110001
simtime = 86, datain =01010110, dataout =11111010 dataoutest =10110001
simtime = 86, datain =01010110, dataout =11111110 dataoutest =10110001
simtime = 87, datain =01010110, dataout =10111100 dataoutest =10110001
simtime = 87, datain =01010111, dataout =10111100 dataoutest =01011011
simtime = 87, datain =01010111, dataout =10111101 dataoutest =01011011
simtime = 87, datain =01010111, dataout =10111001 dataoutest =01011011
simtime = 87, datain =01010111, dataout =10010001 dataoutest =01011011
simtime = 88, datain =01010111, dataout =00010001 dataoutest =01011011
simtime = 88, datain =01010111, dataout =00000001 dataoutest =01011011
simtime = 88, datain =01010111, dataout =00010011 dataoutest =01011011
simtime = 88, datain =01011000, dataout =00010011 dataoutest =01101010
simtime = 88, datain =01011000, dataout =00010010 dataoutest =01101010
simtime = 88, datain =01011000, dataout =00110010 dataoutest =01101010
simtime = 89, datain =01011000, dataout =10110010 dataoutest =01101010
simtime = 89, datain =01011000, dataout =11100000 dataoutest =01101010
simtime = 89, datain =01011001, dataout =11100000 dataoutest =11001011
simtime = 89, datain =01011001, dataout =11100001 dataoutest =11001011
simtime = 89, datain =01011001, dataout =11101001 dataoutest =11001011
simtime = 89, datain =01011001, dataout =11101101 dataoutest =11001011
simtime = 89, datain =01011001, dataout =10101110 dataoutest =11001011
simtime = 90, datain =01011001, dataout =10001110 dataoutest =11001011
simtime = 90, datain =01011001, dataout =10011100 dataoutest =11001011
simtime = 90, datain =01011010, dataout =10011100 dataoutest =10111110
simtime = 90, datain =01011010, dataout =10010100 dataoutest =10111110
simtime = 91, datain =01011010, dataout =00010100 dataoutest =10111110
simtime = 91, datain =01011010, dataout =01001110 dataoutest =10111110
simtime = 91, datain =01011011, dataout =01001110 dataoutest =00111001
simtime = 91, datain =01011011, dataout =01001100 dataoutest =00111001
simtime = 91, datain =01011011, dataout =01100100 dataoutest =00111001
simtime = 91, datain =01011011, dataout =01100000 dataoutest =00111001
simtime = 91, datain =01011011, dataout =10100001 dataoutest =00111001
simtime = 92, datain =01011011, dataout =10110001 dataoutest =00111001
simtime = 92, datain =01011100, dataout =10110001 dataoutest =01001010
simtime = 92, datain =01011100, dataout =11110001 dataoutest =01001010
simtime = 92, datain =01011100, dataout =01111001 dataoutest =01001010
simtime = 93, datain =01011100, dataout =10111001 dataoutest =01001010
simtime = 93, datain =01011101, dataout =10111001 dataoutest =01001100
simtime = 93, datain =01011101, dataout =10111011 dataoutest =01001100
simtime = 93, datain =01011101, dataout =00111011 dataoutest =01001100
simtime = 93, datain =01011101, dataout =00110011 dataoutest =01001100
simtime = 93, datain =01011101, dataout =00110000 dataoutest =01001100
simtime = 94, datain =01011101, dataout =00100010 dataoutest =01001100
simtime = 94, datain =01011110, dataout =00100010 dataoutest =01011000
simtime = 94, datain =01011110, dataout =10100010 dataoutest =01011000
simtime = 94, datain =01011110, dataout =10101010 dataoutest =01011000
simtime = 94, datain =01011110, dataout =11001010 dataoutest =01011000
simtime = 95, datain =01011110, dataout =10011000 dataoutest =01011000
