sbox_normal/sbox_normal.sim/sim_1/behav/xsim/simulate.log
Vivado Simulator 2018.3
Time resolution is 1 ps
simtime = 1, datain =00000001, dataout =01101100 
simtime = 2, datain =00000010, dataout =01100111 
simtime = 3, datain =00000011, dataout =10001011 
simtime = 4, datain =00000100, dataout =01100011 
simtime = 5, datain =00000101, dataout =11101011 
simtime = 6, datain =00000110, dataout =00111011 
simtime = 7, datain =00000111, dataout =11011100 
simtime = 8, datain =00001000, dataout =00110000 
simtime = 9, datain =00001001, dataout =11110001 
simtime = 10, datain =00001010, dataout =01100111 
simtime = 11, datain =00001011, dataout =00111011 
simtime = 12, datain =00001100, dataout =11111110 
simtime = 13, datain =00001101, dataout =01100011 
simtime = 14, datain =00001110, dataout =10011010 
simtime = 15, datain =00001111, dataout =10001000 
simtime = 16, datain =00010000, dataout =00111111 
simtime = 17, datain =00010001, dataout =01100011 
simtime = 18, datain =00010010, dataout =11001101 
simtime = 19, datain =00010011, dataout =01010000 
simtime = 20, datain =00010100, dataout =01100111 
simtime = 21, datain =00010101, dataout =10101001 
simtime = 22, datain =00010110, dataout =10001000 
simtime = 23, datain =00010111, dataout =11010000 
simtime = 24, datain =00011000, dataout =11110110 
simtime = 25, datain =00011001, dataout =10001111 
simtime = 26, datain =00011010, dataout =00011101 
simtime = 27, datain =00011011, dataout =01100011 
simtime = 28, datain =00011100, dataout =01010011 
simtime = 29, datain =00011101, dataout =10110100 
simtime = 30, datain =00011110, dataout =00110000 
simtime = 31, datain =00011111, dataout =10011101 
simtime = 32, datain =00100000, dataout =10110111 
simtime = 33, datain =00100001, dataout =00011101 
simtime = 34, datain =00100010, dataout =01000101 
simtime = 35, datain =00100011, dataout =00000000 
simtime = 36, datain =00100100, dataout =01011000 
simtime = 37, datain =00100101, dataout =10010110 
simtime = 38, datain =00100110, dataout =11010111 
simtime = 39, datain =00100111, dataout =00000011 
simtime = 40, datain =00101000, dataout =11010100 
simtime = 41, datain =00101001, dataout =10000011 
simtime = 42, datain =00101010, dataout =00110011 
simtime = 43, datain =00101011, dataout =11010111 
simtime = 44, datain =00101100, dataout =10101110 
simtime = 45, datain =00101101, dataout =11101000 
simtime = 46, datain =00101110, dataout =10000100 
simtime = 47, datain =00101111, dataout =01100011 
simtime = 48, datain =00110000, dataout =11011011 
simtime = 49, datain =00110001, dataout =00111000 
simtime = 50, datain =00110010, dataout =01001010 
simtime = 51, datain =00110011, dataout =11001101 
simtime = 52, datain =00110100, dataout =01110001 
simtime = 53, datain =00110101, dataout =11001010 
simtime = 54, datain =00110110, dataout =01100011 
simtime = 55, datain =00110111, dataout =01000010 
simtime = 56, datain =00111000, dataout =01001110 
simtime = 57, datain =00111001, dataout =11100011 
simtime = 58, datain =00111010, dataout =10000000 
simtime = 59, datain =00111011, dataout =00011101 
simtime = 60, datain =00111100, dataout =10110011 
simtime = 61, datain =00111101, dataout =01010000 
simtime = 62, datain =00111110, dataout =01010000 
simtime = 63, datain =00111111, dataout =10001000 
simtime = 64, datain =01000000, dataout =00011001 
simtime = 65, datain =01000001, dataout =01000101 
simtime = 66, datain =01000010, dataout =00111100 
simtime = 67, datain =01000011, dataout =00011010 
simtime = 68, datain =01000100, dataout =11010011 
simtime = 69, datain =01000101, dataout =00111011 
simtime = 70, datain =01000110, dataout =00011010 
simtime = 71, datain =01000111, dataout =10110111 
simtime = 72, datain =01001000, dataout =01000010 
simtime = 73, datain =01001001, dataout =00111011 
simtime = 74, datain =01001010, dataout =11000110 
simtime = 75, datain =01001011, dataout =01010011 
simtime = 76, datain =01001100, dataout =01110101 
simtime = 77, datain =01001101, dataout =10010010 
simtime = 78, datain =01001110, dataout =01000010 
simtime = 79, datain =01001111, dataout =11110110 
simtime = 80, datain =01010000, dataout =01100011 
simtime = 81, datain =01010001, dataout =11000001 
simtime = 82, datain =01010010, dataout =10010101 
simtime = 83, datain =01010011, dataout =10111000 
simtime = 84, datain =01010100, dataout =00000000 
simtime = 85, datain =01010101, dataout =00110011 
simtime = 86, datain =01010110, dataout =01111101 
simtime = 87, datain =01010111, dataout =00111100 
simtime = 88, datain =01011000, dataout =10101110 
simtime = 89, datain =01011001, dataout =10011110 
simtime = 90, datain =01011010, dataout =00111100 
simtime = 91, datain =01011011, dataout =01001101 
simtime = 92, datain =01011100, dataout =01001010 
simtime = 93, datain =01011101, dataout =01011100 
simtime = 94, datain =01011110, dataout =01011000 
simtime = 95, datain =01011111, dataout =00110000 
simtime = 96, datain =01100000, dataout =00110000 
simtime = 97, datain =01100001, dataout =11101111 
simtime = 98, datain =01100010, dataout =01101100 
simtime = 99, datain =01100011, dataout =11101011 
simtime = 100, datain =01100100, dataout =10111100 
simtime = 101, datain =01100101, dataout =01111101 
simtime = 102, datain =01100110, dataout =01100011 
simtime = 103, datain =01100111, dataout =11110110 
simtime = 104, datain =01101000, dataout =10100101 
simtime = 105, datain =01101001, dataout =11011111 
simtime = 106, datain =01101010, dataout =00010010 
simtime = 107, datain =01101011, dataout =10001111 
simtime = 108, datain =01101100, dataout =11011111 
simtime = 109, datain =01101101, dataout =10001011 
simtime = 110, datain =01101110, dataout =01010000 
simtime = 111, datain =01101111, dataout =10001000 
simtime = 112, datain =01110000, dataout =01100100 
simtime = 113, datain =01110001, dataout =00111011 
simtime = 114, datain =01110010, dataout =01010000 
simtime = 115, datain =01110011, dataout =01100000 
simtime = 116, datain =01110100, dataout =00010010 
simtime = 117, datain =01110101, dataout =01100111 
simtime = 118, datain =01110110, dataout =01001001 
simtime = 119, datain =01110111, dataout =00000000 
simtime = 120, datain =01111000, dataout =10001100 
simtime = 121, datain =01111001, dataout =01001001 
simtime = 122, datain =01111010, dataout =10111011 
simtime = 123, datain =01111011, dataout =11000010 
simtime = 124, datain =01111100, dataout =10000000 
simtime = 125, datain =01111101, dataout =01100011 
simtime = 126, datain =01111110, dataout =10000100 
simtime = 127, datain =01111111, dataout =00110011 
simtime = 128, datain =10000000, dataout =01111101 
simtime = 129, datain =10000001, dataout =00110000 
simtime = 130, datain =10000010, dataout =01011100 
simtime = 131, datain =10000011, dataout =01010000 
simtime = 132, datain =10000100, dataout =11101111 
simtime = 133, datain =10000101, dataout =00101110 
simtime = 134, datain =10000110, dataout =01100100 
simtime = 135, datain =10000111, dataout =11011000 
simtime = 136, datain =10001000, dataout =01001101 
simtime = 137, datain =10001001, dataout =00110111 
simtime = 138, datain =10001010, dataout =11000110 
simtime = 139, datain =10001011, dataout =10001000 
simtime = 140, datain =10001100, dataout =10001011 
simtime = 141, datain =10001101, dataout =01001101 
simtime = 142, datain =10001110, dataout =11011011 
simtime = 143, datain =10001111, dataout =10111000 
simtime = 144, datain =10010000, dataout =10001111 
simtime = 145, datain =10010001, dataout =10010001 
simtime = 146, datain =10010010, dataout =00000011 
simtime = 147, datain =10010011, dataout =00111111 
simtime = 148, datain =10010100, dataout =00100010 
simtime = 149, datain =10010101, dataout =11101100 
simtime = 150, datain =10010110, dataout =01100000 
simtime = 151, datain =10010111, dataout =10001000 
simtime = 152, datain =10011000, dataout =00110111 
simtime = 153, datain =10011001, dataout =11110010 
simtime = 154, datain =10011010, dataout =10111000 
simtime = 155, datain =10011011, dataout =11101011 
simtime = 156, datain =10011100, dataout =11101000 
simtime = 157, datain =10011101, dataout =10001000 
simtime = 158, datain =10011110, dataout =11101011 
simtime = 159, datain =10011111, dataout =11011011 
simtime = 160, datain =10100000, dataout =11010000 
simtime = 161, datain =10100001, dataout =11001101 
simtime = 162, datain =10100010, dataout =00111100 
simtime = 163, datain =10100011, dataout =00011010 
simtime = 164, datain =10100100, dataout =00001011 
simtime = 165, datain =10100101, dataout =01000010 
simtime = 166, datain =10100110, dataout =10010001 
simtime = 167, datain =10100111, dataout =00111100 
simtime = 168, datain =10101000, dataout =00111011 
simtime = 169, datain =10101001, dataout =01011000 
simtime = 170, datain =10101010, dataout =01010011 
simtime = 171, datain =10101011, dataout =01110010 
simtime = 172, datain =10101100, dataout =01110110 
simtime = 173, datain =10101101, dataout =11100000 
simtime = 174, datain =10101110, dataout =01000010 
simtime = 175, datain =10101111, dataout =11110110 
simtime = 176, datain =10110000, dataout =11100111 
simtime = 177, datain =10110001, dataout =01100011 
simtime = 178, datain =10110010, dataout =10001011 
simtime = 179, datain =10110011, dataout =11010011 
simtime = 180, datain =10110100, dataout =10111011 
simtime = 181, datain =10110101, dataout =00000011 
simtime = 182, datain =10110110, dataout =01001110 
simtime = 183, datain =10110111, dataout =10101001 
simtime = 184, datain =10111000, dataout =10011110 
simtime = 185, datain =10111001, dataout =10101110 
simtime = 186, datain =10111010, dataout =10101001 
simtime = 187, datain =10111011, dataout =11110101 
simtime = 188, datain =10111100, dataout =01110101 
simtime = 189, datain =10111101, dataout =01111010 
simtime = 190, datain =10111110, dataout =10001000 
simtime = 191, datain =10111111, dataout =00101110 
simtime = 192, datain =11000000, dataout =10101001 
simtime = 193, datain =11000001, dataout =11010000 
simtime = 194, datain =11000010, dataout =01100011 
simtime = 195, datain =11000011, dataout =00111111 
simtime = 196, datain =11000100, dataout =11010011 
simtime = 197, datain =11000101, dataout =10100110 
simtime = 198, datain =11000110, dataout =01100011 
simtime = 199, datain =11000111, dataout =01001001 
simtime = 200, datain =11001000, dataout =01101111 
simtime = 201, datain =11001001, dataout =00111000 
simtime = 202, datain =11001010, dataout =11000010 
simtime = 203, datain =11001011, dataout =01100011 
simtime = 204, datain =11001100, dataout =01100011 
simtime = 205, datain =11001101, dataout =00010010 
simtime = 206, datain =11001110, dataout =10111011 
simtime = 207, datain =11001111, dataout =01000101 
simtime = 208, datain =11010000, dataout =10101010 
simtime = 209, datain =11010001, dataout =11011011 
simtime = 210, datain =11010010, dataout =01111010 
simtime = 211, datain =11010011, dataout =01110110 
simtime = 212, datain =11010100, dataout =01011000 
simtime = 213, datain =11010101, dataout =11000101 
simtime = 214, datain =11010110, dataout =11010000 
simtime = 215, datain =11010111, dataout =11011000 
simtime = 216, datain =11011000, dataout =01110001 
simtime = 217, datain =11011001, dataout =11111010 
simtime = 218, datain =11011010, dataout =01110010 
simtime = 219, datain =11011011, dataout =10101110 
simtime = 220, datain =11011100, dataout =01010000 
simtime = 221, datain =11011101, dataout =00100001 
simtime = 222, datain =11011110, dataout =11011011 
simtime = 223, datain =11011111, dataout =10111000 
simtime = 224, datain =11100000, dataout =01100011 
simtime = 225, datain =11100001, dataout =01100011 
simtime = 226, datain =11100010, dataout =10111000 
simtime = 227, datain =11100011, dataout =00100001 
simtime = 228, datain =11100100, dataout =01100011 
simtime = 229, datain =11100101, dataout =01100000 
simtime = 230, datain =11100110, dataout =00011010 
simtime = 231, datain =11100111, dataout =11101111 
simtime = 232, datain =11101000, dataout =10001011 
simtime = 233, datain =11101001, dataout =11110001 
simtime = 234, datain =11101010, dataout =11011111 
simtime = 235, datain =11101011, dataout =00011010 
simtime = 236, datain =11101100, dataout =11001110 
simtime = 237, datain =11101101, dataout =01100011 
simtime = 238, datain =11101110, dataout =00110000 
simtime = 239, datain =11101111, dataout =11101100 
simtime = 240, datain =11110000, dataout =01000010 
simtime = 241, datain =11110001, dataout =11101011 
simtime = 242, datain =11110010, dataout =01110110 
simtime = 243, datain =11110011, dataout =11101011 
simtime = 244, datain =11110100, dataout =10111111 
simtime = 245, datain =11110101, dataout =11110110 
simtime = 246, datain =11110110, dataout =01100100 
simtime = 247, datain =11110111, dataout =10101110 
simtime = 248, datain =11111000, dataout =10101001 
simtime = 249, datain =11111001, dataout =11101100 
simtime = 250, datain =11111010, dataout =01100011 
simtime = 251, datain =11111011, dataout =10001111 
simtime = 252, datain =11111100, dataout =01010000 
simtime = 253, datain =11111101, dataout =01110010 
simtime = 254, datain =11111110, dataout =10111011 
simtime = 255, datain =11111111, dataout =00010110 
simtime = 256, datain =00000000, dataout =01100011 
