sbox_compact_optimized/sbox_compact_optimized.sim/sim_1/behav/xsim/simulate.log
Vivado Simulator 2018.3
Time resolution is 1 ps
simtime = 2, datain =00000001, dataout =01100011 
simtime = 6, datain =00000010, dataout =01111100 
simtime = 10, datain =00000011, dataout =01110111 
simtime = 14, datain =00000100, dataout =01111011 
simtime = 18, datain =00000101, dataout =11110010 
simtime = 22, datain =00000110, dataout =01101011 
simtime = 26, datain =00000111, dataout =01101111 
simtime = 30, datain =00001000, dataout =11000101 
simtime = 34, datain =00001001, dataout =00110000 
simtime = 38, datain =00001010, dataout =00000001 
simtime = 42, datain =00001011, dataout =01100111 
simtime = 46, datain =00001100, dataout =00101011 
simtime = 50, datain =00001101, dataout =11111110 
simtime = 54, datain =00001110, dataout =11010111 
simtime = 58, datain =00001111, dataout =10101011 
simtime = 62, datain =00010000, dataout =01110110 
simtime = 66, datain =00010001, dataout =11001010 
simtime = 70, datain =00010010, dataout =10000010 
simtime = 74, datain =00010011, dataout =11001001 
simtime = 78, datain =00010100, dataout =01111101 
simtime = 82, datain =00010101, dataout =11111010 
simtime = 86, datain =00010110, dataout =01011001 
simtime = 90, datain =00010111, dataout =01000111 
simtime = 94, datain =00011000, dataout =11110000 
simtime = 98, datain =00011001, dataout =10101101 
simtime = 102, datain =00011010, dataout =11010100 
simtime = 106, datain =00011011, dataout =10100010 
simtime = 110, datain =00011100, dataout =10101111 
simtime = 114, datain =00011101, dataout =10011100 
simtime = 118, datain =00011110, dataout =10100100 
simtime = 122, datain =00011111, dataout =01110010 
simtime = 126, datain =00100000, dataout =11000000 
simtime = 130, datain =00100001, dataout =10110111 
simtime = 134, datain =00100010, dataout =11111101 
simtime = 138, datain =00100011, dataout =10010011 
simtime = 142, datain =00100100, dataout =00100110 
simtime = 146, datain =00100101, dataout =00110110 
simtime = 150, datain =00100110, dataout =00111111 
simtime = 154, datain =00100111, dataout =11110111 
simtime = 158, datain =00101000, dataout =11001100 
simtime = 162, datain =00101001, dataout =00110100 
simtime = 166, datain =00101010, dataout =10100101 
simtime = 170, datain =00101011, dataout =11100101 
simtime = 174, datain =00101100, dataout =11110001 
simtime = 178, datain =00101101, dataout =01110001 
simtime = 182, datain =00101110, dataout =11011000 
simtime = 186, datain =00101111, dataout =00110001 
simtime = 190, datain =00110000, dataout =00010101 
simtime = 194, datain =00110001, dataout =00000100 
simtime = 198, datain =00110010, dataout =11000111 
simtime = 202, datain =00110011, dataout =00100011 
simtime = 206, datain =00110100, dataout =11000011 
simtime = 210, datain =00110101, dataout =00011000 
simtime = 214, datain =00110110, dataout =10010110 
simtime = 218, datain =00110111, dataout =00000101 
simtime = 222, datain =00111000, dataout =10011010 
simtime = 226, datain =00111001, dataout =00000111 
simtime = 230, datain =00111010, dataout =00010010 
simtime = 234, datain =00111011, dataout =10000000 
simtime = 238, datain =00111100, dataout =11100010 
simtime = 242, datain =00111101, dataout =11101011 
simtime = 246, datain =00111110, dataout =00100111 
simtime = 250, datain =00111111, dataout =10110010 
simtime = 254, datain =01000000, dataout =01110101 
simtime = 258, datain =01000001, dataout =00001001 
simtime = 262, datain =01000010, dataout =10000011 
simtime = 266, datain =01000011, dataout =00101100 
simtime = 270, datain =01000100, dataout =00011010 
simtime = 274, datain =01000101, dataout =00011011 
simtime = 278, datain =01000110, dataout =01101110 
simtime = 282, datain =01000111, dataout =01011010 
simtime = 286, datain =01001000, dataout =10100000 
simtime = 290, datain =01001001, dataout =01010010 
simtime = 294, datain =01001010, dataout =00111011 
simtime = 298, datain =01001011, dataout =11010110 
simtime = 302, datain =01001100, dataout =10110011 
simtime = 306, datain =01001101, dataout =00101001 
simtime = 310, datain =01001110, dataout =11100011 
simtime = 314, datain =01001111, dataout =00101111 
simtime = 318, datain =01010000, dataout =10000100 
simtime = 322, datain =01010001, dataout =01010011 
simtime = 326, datain =01010010, dataout =11010001 
simtime = 330, datain =01010011, dataout =00000000 
simtime = 334, datain =01010100, dataout =11101101 
simtime = 338, datain =01010101, dataout =00100000 
simtime = 342, datain =01010110, dataout =11111100 
simtime = 346, datain =01010111, dataout =10110001 
simtime = 350, datain =01011000, dataout =01011011 
simtime = 354, datain =01011001, dataout =01101010 
simtime = 358, datain =01011010, dataout =11001011 
simtime = 362, datain =01011011, dataout =10111110 
simtime = 366, datain =01011100, dataout =00111001 
simtime = 370, datain =01011101, dataout =01001010 
simtime = 374, datain =01011110, dataout =01001100 
simtime = 378, datain =01011111, dataout =01011000 
simtime = 382, datain =01100000, dataout =11001111 
simtime = 386, datain =01100001, dataout =11010000 
simtime = 390, datain =01100010, dataout =11101111 
simtime = 394, datain =01100011, dataout =10101010 
simtime = 398, datain =01100100, dataout =11111011 
simtime = 402, datain =01100101, dataout =01000011 
simtime = 406, datain =01100110, dataout =01001101 
simtime = 410, datain =01100111, dataout =00110011 
simtime = 414, datain =01101000, dataout =10000101 
simtime = 418, datain =01101001, dataout =01000101 
simtime = 422, datain =01101010, dataout =11111001 
simtime = 426, datain =01101011, dataout =00000010 
simtime = 430, datain =01101100, dataout =01111111 
simtime = 434, datain =01101101, dataout =01010000 
simtime = 438, datain =01101110, dataout =00111100 
simtime = 442, datain =01101111, dataout =10011111 
simtime = 446, datain =01110000, dataout =10101000 
simtime = 450, datain =01110001, dataout =01010001 
simtime = 454, datain =01110010, dataout =10100011 
simtime = 458, datain =01110011, dataout =01000000 
simtime = 462, datain =01110100, dataout =10001111 
simtime = 466, datain =01110101, dataout =10010010 
simtime = 470, datain =01110110, dataout =10011101 
simtime = 474, datain =01110111, dataout =00111000 
simtime = 478, datain =01111000, dataout =11110101 
simtime = 482, datain =01111001, dataout =10111100 
simtime = 486, datain =01111010, dataout =10110110 
simtime = 490, datain =01111011, dataout =11011010 
simtime = 494, datain =01111100, dataout =00100001 
simtime = 498, datain =01111101, dataout =00010000 
simtime = 502, datain =01111110, dataout =11111111 
simtime = 506, datain =01111111, dataout =11110011 
simtime = 510, datain =10000000, dataout =11010010 
simtime = 514, datain =10000001, dataout =11001101 
simtime = 518, datain =10000010, dataout =00001100 
simtime = 522, datain =10000011, dataout =00010011 
simtime = 526, datain =10000100, dataout =11101100 
simtime = 530, datain =10000101, dataout =01011111 
simtime = 534, datain =10000110, dataout =10010111 
simtime = 538, datain =10000111, dataout =01000100 
simtime = 542, datain =10001000, dataout =00010111 
simtime = 546, datain =10001001, dataout =11000100 
simtime = 550, datain =10001010, dataout =10100111 
simtime = 554, datain =10001011, dataout =01111110 
simtime = 558, datain =10001100, dataout =00111101 
simtime = 562, datain =10001101, dataout =01100100 
simtime = 566, datain =10001110, dataout =01011101 
simtime = 570, datain =10001111, dataout =00011001 
simtime = 574, datain =10010000, dataout =01110011 
simtime = 578, datain =10010001, dataout =01100000 
simtime = 582, datain =10010010, dataout =10000001 
simtime = 586, datain =10010011, dataout =01001111 
simtime = 590, datain =10010100, dataout =11011100 
simtime = 594, datain =10010101, dataout =00100010 
simtime = 598, datain =10010110, dataout =00101010 
simtime = 602, datain =10010111, dataout =10010000 
simtime = 606, datain =10011000, dataout =10001000 
simtime = 610, datain =10011001, dataout =01000110 
simtime = 614, datain =10011010, dataout =11101110 
simtime = 618, datain =10011011, dataout =10111000 
simtime = 622, datain =10011100, dataout =00010100 
simtime = 626, datain =10011101, dataout =11011110 
simtime = 630, datain =10011110, dataout =01011110 
simtime = 634, datain =10011111, dataout =00001011 
simtime = 638, datain =10100000, dataout =11011011 
simtime = 642, datain =10100001, dataout =11100000 
simtime = 646, datain =10100010, dataout =00110010 
simtime = 650, datain =10100011, dataout =00111010 
simtime = 654, datain =10100100, dataout =00001010 
simtime = 658, datain =10100101, dataout =01001001 
simtime = 662, datain =10100110, dataout =00000110 
simtime = 666, datain =10100111, dataout =00100100 
simtime = 670, datain =10101000, dataout =01011100 
simtime = 674, datain =10101001, dataout =11000010 
simtime = 678, datain =10101010, dataout =11010011 
simtime = 682, datain =10101011, dataout =10101100 
simtime = 686, datain =10101100, dataout =01100010 
simtime = 690, datain =10101101, dataout =10010001 
simtime = 694, datain =10101110, dataout =10010101 
simtime = 698, datain =10101111, dataout =11100100 
simtime = 702, datain =10110000, dataout =01111001 
simtime = 706, datain =10110001, dataout =11100111 
simtime = 710, datain =10110010, dataout =11001000 
simtime = 714, datain =10110011, dataout =00110111 
simtime = 718, datain =10110100, dataout =01101101 
simtime = 722, datain =10110101, dataout =10001101 
simtime = 726, datain =10110110, dataout =11010101 
simtime = 730, datain =10110111, dataout =01001110 
simtime = 734, datain =10111000, dataout =10101001 
simtime = 738, datain =10111001, dataout =01101100 
simtime = 742, datain =10111010, dataout =01010110 
simtime = 746, datain =10111011, dataout =11110100 
simtime = 750, datain =10111100, dataout =11101010 
simtime = 754, datain =10111101, dataout =01100101 
simtime = 758, datain =10111110, dataout =01111010 
simtime = 762, datain =10111111, dataout =10101110 
simtime = 766, datain =11000000, dataout =00001000 
simtime = 770, datain =11000001, dataout =10111010 
simtime = 774, datain =11000010, dataout =01111000 
simtime = 778, datain =11000011, dataout =00100101 
simtime = 782, datain =11000100, dataout =00101110 
simtime = 786, datain =11000101, dataout =00011100 
simtime = 790, datain =11000110, dataout =10100110 
simtime = 794, datain =11000111, dataout =10110100 
simtime = 798, datain =11001000, dataout =11000110 
simtime = 802, datain =11001001, dataout =11101000 
simtime = 806, datain =11001010, dataout =11011101 
simtime = 810, datain =11001011, dataout =01110100 
simtime = 814, datain =11001100, dataout =00011111 
simtime = 818, datain =11001101, dataout =01001011 
simtime = 822, datain =11001110, dataout =10111101 
simtime = 826, datain =11001111, dataout =10001011 
simtime = 830, datain =11010000, dataout =10001010 
simtime = 834, datain =11010001, dataout =01110000 
simtime = 838, datain =11010010, dataout =00111110 
simtime = 842, datain =11010011, dataout =10110101 
simtime = 846, datain =11010100, dataout =01100110 
simtime = 850, datain =11010101, dataout =01001000 
simtime = 854, datain =11010110, dataout =00000011 
simtime = 858, datain =11010111, dataout =11110110 
simtime = 862, datain =11011000, dataout =00001110 
simtime = 866, datain =11011001, dataout =01100001 
simtime = 870, datain =11011010, dataout =00110101 
simtime = 874, datain =11011011, dataout =01010111 
simtime = 878, datain =11011100, dataout =10111001 
simtime = 882, datain =11011101, dataout =10000110 
simtime = 886, datain =11011110, dataout =11000001 
simtime = 890, datain =11011111, dataout =00011101 
simtime = 894, datain =11100000, dataout =10011110 
simtime = 898, datain =11100001, dataout =11100001 
simtime = 902, datain =11100010, dataout =11111000 
simtime = 906, datain =11100011, dataout =10011000 
simtime = 910, datain =11100100, dataout =00010001 
simtime = 914, datain =11100101, dataout =01101001 
simtime = 918, datain =11100110, dataout =11011001 
simtime = 922, datain =11100111, dataout =10001110 
simtime = 926, datain =11101000, dataout =10010100 
simtime = 930, datain =11101001, dataout =10011011 
simtime = 934, datain =11101010, dataout =00011110 
simtime = 938, datain =11101011, dataout =10000111 
simtime = 942, datain =11101100, dataout =11101001 
simtime = 946, datain =11101101, dataout =11001110 
simtime = 950, datain =11101110, dataout =01010101 
simtime = 954, datain =11101111, dataout =00101000 
simtime = 958, datain =11110000, dataout =11011111 
simtime = 962, datain =11110001, dataout =10001100 
simtime = 966, datain =11110010, dataout =10100001 
simtime = 970, datain =11110011, dataout =10001001 
simtime = 974, datain =11110100, dataout =00001101 
simtime = 978, datain =11110101, dataout =10111111 
simtime = 982, datain =11110110, dataout =11100110 
simtime = 986, datain =11110111, dataout =01000010 
simtime = 990, datain =11111000, dataout =01101000 
simtime = 994, datain =11111001, dataout =01000001 
simtime = 998, datain =11111010, dataout =10011001 
simtime = 1002, datain =11111011, dataout =00101101 
simtime = 1006, datain =11111100, dataout =00001111 
simtime = 1010, datain =11111101, dataout =10110000 
simtime = 1014, datain =11111110, dataout =01010100 
simtime = 1018, datain =11111111, dataout =10111011 
simtime = 1022, datain =00000000, dataout =00010110 
simtime = 1026, datain =00000001, dataout =01100011 
simtime = 1030, datain =00000010, dataout =01111100 
simtime = 1034, datain =00000011, dataout =01110111 
simtime = 1038, datain =00000100, dataout =01111011 
simtime = 1042, datain =00000101, dataout =11110010 
simtime = 1046, datain =00000110, dataout =01101011 
simtime = 1050, datain =00000111, dataout =01101111 
simtime = 1054, datain =00001000, dataout =11000101 
simtime = 1058, datain =00001001, dataout =00110000 
simtime = 1062, datain =00001010, dataout =00000001 
simtime = 1066, datain =00001011, dataout =01100111 
simtime = 1070, datain =00001100, dataout =00101011 
simtime = 1074, datain =00001101, dataout =11111110 
simtime = 1078, datain =00001110, dataout =11010111 
simtime = 1082, datain =00001111, dataout =10101011 
simtime = 1086, datain =00010000, dataout =01110110 
simtime = 1090, datain =00010001, dataout =11001010 
simtime = 1094, datain =00010010, dataout =10000010 
simtime = 1098, datain =00010011, dataout =11001001 
simtime = 1102, datain =00010100, dataout =01111101 
simtime = 1106, datain =00010101, dataout =11111010 
simtime = 1110, datain =00010110, dataout =01011001 
simtime = 1114, datain =00010111, dataout =01000111 
simtime = 1118, datain =00011000, dataout =11110000 
simtime = 1122, datain =00011001, dataout =10101101 
simtime = 1126, datain =00011010, dataout =11010100 
simtime = 1130, datain =00011011, dataout =10100010 
simtime = 1134, datain =00011100, dataout =10101111 
simtime = 1138, datain =00011101, dataout =10011100 
simtime = 1142, datain =00011110, dataout =10100100 
simtime = 1146, datain =00011111, dataout =01110010 
simtime = 1150, datain =00100000, dataout =11000000 
simtime = 1154, datain =00100001, dataout =10110111 
simtime = 1158, datain =00100010, dataout =11111101 
simtime = 1162, datain =00100011, dataout =10010011 
simtime = 1166, datain =00100100, dataout =00100110 
simtime = 1170, datain =00100101, dataout =00110110 
simtime = 1174, datain =00100110, dataout =00111111 
simtime = 1178, datain =00100111, dataout =11110111 
simtime = 1182, datain =00101000, dataout =11001100 
simtime = 1186, datain =00101001, dataout =00110100 
simtime = 1190, datain =00101010, dataout =10100101 
simtime = 1194, datain =00101011, dataout =11100101 
simtime = 1198, datain =00101100, dataout =11110001 
simtime = 1202, datain =00101101, dataout =01110001 
simtime = 1206, datain =00101110, dataout =11011000 
simtime = 1210, datain =00101111, dataout =00110001 
simtime = 1214, datain =00110000, dataout =00010101 
simtime = 1218, datain =00110001, dataout =00000100 
simtime = 1222, datain =00110010, dataout =11000111 
simtime = 1226, datain =00110011, dataout =00100011 
simtime = 1230, datain =00110100, dataout =11000011 
simtime = 1234, datain =00110101, dataout =00011000 
simtime = 1238, datain =00110110, dataout =10010110 
simtime = 1242, datain =00110111, dataout =00000101 
simtime = 1246, datain =00111000, dataout =10011010 
simtime = 1250, datain =00111001, dataout =00000111 
simtime = 1254, datain =00111010, dataout =00010010 
simtime = 1258, datain =00111011, dataout =10000000 
simtime = 1262, datain =00111100, dataout =11100010 
simtime = 1266, datain =00111101, dataout =11101011 
simtime = 1270, datain =00111110, dataout =00100111 
simtime = 1274, datain =00111111, dataout =10110010 
simtime = 1278, datain =01000000, dataout =01110101 
simtime = 1282, datain =01000001, dataout =00001001 
simtime = 1286, datain =01000010, dataout =10000011 
simtime = 1290, datain =01000011, dataout =00101100 
simtime = 1294, datain =01000100, dataout =00011010 
simtime = 1298, datain =01000101, dataout =00011011 
simtime = 1302, datain =01000110, dataout =01101110 
simtime = 1306, datain =01000111, dataout =01011010 
simtime = 1310, datain =01001000, dataout =10100000 
simtime = 1314, datain =01001001, dataout =01010010 
simtime = 1318, datain =01001010, dataout =00111011 
simtime = 1322, datain =01001011, dataout =11010110 
simtime = 1326, datain =01001100, dataout =10110011 
simtime = 1330, datain =01001101, dataout =00101001 
simtime = 1334, datain =01001110, dataout =11100011 
simtime = 1338, datain =01001111, dataout =00101111 
simtime = 1342, datain =01010000, dataout =10000100 
simtime = 1346, datain =01010001, dataout =01010011 
simtime = 1350, datain =01010010, dataout =11010001 
simtime = 1354, datain =01010011, dataout =00000000 
simtime = 1358, datain =01010100, dataout =11101101 
simtime = 1362, datain =01010101, dataout =00100000 
simtime = 1366, datain =01010110, dataout =11111100 
simtime = 1370, datain =01010111, dataout =10110001 
simtime = 1374, datain =01011000, dataout =01011011 
simtime = 1378, datain =01011001, dataout =01101010 
simtime = 1382, datain =01011010, dataout =11001011 
simtime = 1386, datain =01011011, dataout =10111110 
simtime = 1390, datain =01011100, dataout =00111001 
simtime = 1394, datain =01011101, dataout =01001010 
simtime = 1398, datain =01011110, dataout =01001100 
simtime = 1402, datain =01011111, dataout =01011000 
simtime = 1406, datain =01100000, dataout =11001111 
simtime = 1410, datain =01100001, dataout =11010000 
simtime = 1414, datain =01100010, dataout =11101111 
simtime = 1418, datain =01100011, dataout =10101010 
simtime = 1422, datain =01100100, dataout =11111011 
simtime = 1426, datain =01100101, dataout =01000011 
simtime = 1430, datain =01100110, dataout =01001101 
simtime = 1434, datain =01100111, dataout =00110011 
simtime = 1438, datain =01101000, dataout =10000101 
simtime = 1442, datain =01101001, dataout =01000101 
simtime = 1446, datain =01101010, dataout =11111001 
simtime = 1450, datain =01101011, dataout =00000010 
simtime = 1454, datain =01101100, dataout =01111111 
simtime = 1458, datain =01101101, dataout =01010000 
simtime = 1462, datain =01101110, dataout =00111100 
simtime = 1466, datain =01101111, dataout =10011111 
simtime = 1470, datain =01110000, dataout =10101000 
simtime = 1474, datain =01110001, dataout =01010001 
simtime = 1478, datain =01110010, dataout =10100011 
simtime = 1482, datain =01110011, dataout =01000000 
simtime = 1486, datain =01110100, dataout =10001111 
simtime = 1490, datain =01110101, dataout =10010010 
simtime = 1494, datain =01110110, dataout =10011101 
simtime = 1498, datain =01110111, dataout =00111000 
simtime = 1502, datain =01111000, dataout =11110101 
simtime = 1506, datain =01111001, dataout =10111100 
simtime = 1510, datain =01111010, dataout =10110110 
simtime = 1514, datain =01111011, dataout =11011010 
simtime = 1518, datain =01111100, dataout =00100001 
simtime = 1522, datain =01111101, dataout =00010000 
simtime = 1526, datain =01111110, dataout =11111111 
simtime = 1530, datain =01111111, dataout =11110011 
simtime = 1534, datain =10000000, dataout =11010010 
simtime = 1538, datain =10000001, dataout =11001101 
simtime = 1542, datain =10000010, dataout =00001100 
simtime = 1546, datain =10000011, dataout =00010011 
simtime = 1550, datain =10000100, dataout =11101100 
simtime = 1554, datain =10000101, dataout =01011111 
simtime = 1558, datain =10000110, dataout =10010111 
simtime = 1562, datain =10000111, dataout =01000100 
simtime = 1566, datain =10001000, dataout =00010111 
simtime = 1570, datain =10001001, dataout =11000100 
simtime = 1574, datain =10001010, dataout =10100111 
simtime = 1578, datain =10001011, dataout =01111110 
simtime = 1582, datain =10001100, dataout =00111101 
simtime = 1586, datain =10001101, dataout =01100100 
simtime = 1590, datain =10001110, dataout =01011101 
simtime = 1594, datain =10001111, dataout =00011001 
simtime = 1598, datain =10010000, dataout =01110011 
simtime = 1602, datain =10010001, dataout =01100000 
simtime = 1606, datain =10010010, dataout =10000001 
simtime = 1610, datain =10010011, dataout =01001111 
simtime = 1614, datain =10010100, dataout =11011100 
simtime = 1618, datain =10010101, dataout =00100010 
simtime = 1622, datain =10010110, dataout =00101010 
simtime = 1626, datain =10010111, dataout =10010000 
simtime = 1630, datain =10011000, dataout =10001000 
simtime = 1634, datain =10011001, dataout =01000110 
simtime = 1638, datain =10011010, dataout =11101110 
simtime = 1642, datain =10011011, dataout =10111000 
simtime = 1646, datain =10011100, dataout =00010100 
simtime = 1650, datain =10011101, dataout =11011110 
simtime = 1654, datain =10011110, dataout =01011110 
simtime = 1658, datain =10011111, dataout =00001011 
simtime = 1662, datain =10100000, dataout =11011011 
simtime = 1666, datain =10100001, dataout =11100000 
simtime = 1670, datain =10100010, dataout =00110010 
simtime = 1674, datain =10100011, dataout =00111010 
simtime = 1678, datain =10100100, dataout =00001010 
simtime = 1682, datain =10100101, dataout =01001001 
simtime = 1686, datain =10100110, dataout =00000110 
simtime = 1690, datain =10100111, dataout =00100100 
simtime = 1694, datain =10101000, dataout =01011100 
simtime = 1698, datain =10101001, dataout =11000010 
simtime = 1702, datain =10101010, dataout =11010011 
simtime = 1706, datain =10101011, dataout =10101100 
simtime = 1710, datain =10101100, dataout =01100010 
simtime = 1714, datain =10101101, dataout =10010001 
simtime = 1718, datain =10101110, dataout =10010101 
simtime = 1722, datain =10101111, dataout =11100100 
simtime = 1726, datain =10110000, dataout =01111001 
simtime = 1730, datain =10110001, dataout =11100111 
simtime = 1734, datain =10110010, dataout =11001000 
simtime = 1738, datain =10110011, dataout =00110111 
simtime = 1742, datain =10110100, dataout =01101101 
simtime = 1746, datain =10110101, dataout =10001101 
simtime = 1750, datain =10110110, dataout =11010101 
simtime = 1754, datain =10110111, dataout =01001110 
simtime = 1758, datain =10111000, dataout =10101001 
simtime = 1762, datain =10111001, dataout =01101100 
simtime = 1766, datain =10111010, dataout =01010110 
simtime = 1770, datain =10111011, dataout =11110100 
simtime = 1774, datain =10111100, dataout =11101010 
simtime = 1778, datain =10111101, dataout =01100101 
simtime = 1782, datain =10111110, dataout =01111010 
simtime = 1786, datain =10111111, dataout =10101110 
simtime = 1790, datain =11000000, dataout =00001000 
simtime = 1794, datain =11000001, dataout =10111010 
simtime = 1798, datain =11000010, dataout =01111000 
simtime = 1802, datain =11000011, dataout =00100101 
simtime = 1806, datain =11000100, dataout =00101110 
simtime = 1810, datain =11000101, dataout =00011100 
simtime = 1814, datain =11000110, dataout =10100110 
simtime = 1818, datain =11000111, dataout =10110100 
simtime = 1822, datain =11001000, dataout =11000110 
simtime = 1826, datain =11001001, dataout =11101000 
simtime = 1830, datain =11001010, dataout =11011101 
simtime = 1834, datain =11001011, dataout =01110100 
simtime = 1838, datain =11001100, dataout =00011111 
simtime = 1842, datain =11001101, dataout =01001011 
simtime = 1846, datain =11001110, dataout =10111101 
simtime = 1850, datain =11001111, dataout =10001011 
simtime = 1854, datain =11010000, dataout =10001010 
simtime = 1858, datain =11010001, dataout =01110000 
simtime = 1862, datain =11010010, dataout =00111110 
simtime = 1866, datain =11010011, dataout =10110101 
simtime = 1870, datain =11010100, dataout =01100110 
simtime = 1874, datain =11010101, dataout =01001000 
simtime = 1878, datain =11010110, dataout =00000011 
simtime = 1882, datain =11010111, dataout =11110110 
simtime = 1886, datain =11011000, dataout =00001110 
simtime = 1890, datain =11011001, dataout =01100001 
simtime = 1894, datain =11011010, dataout =00110101 
simtime = 1898, datain =11011011, dataout =01010111 
simtime = 1902, datain =11011100, dataout =10111001 
simtime = 1906, datain =11011101, dataout =10000110 
simtime = 1910, datain =11011110, dataout =11000001 
simtime = 1914, datain =11011111, dataout =00011101 
simtime = 1918, datain =11100000, dataout =10011110 
simtime = 1922, datain =11100001, dataout =11100001 
simtime = 1926, datain =11100010, dataout =11111000 
simtime = 1930, datain =11100011, dataout =10011000 
simtime = 1934, datain =11100100, dataout =00010001 
simtime = 1938, datain =11100101, dataout =01101001 
simtime = 1942, datain =11100110, dataout =11011001 
simtime = 1946, datain =11100111, dataout =10001110 
simtime = 1950, datain =11101000, dataout =10010100 
simtime = 1954, datain =11101001, dataout =10011011 
simtime = 1958, datain =11101010, dataout =00011110 
simtime = 1962, datain =11101011, dataout =10000111 
simtime = 1966, datain =11101100, dataout =11101001 
simtime = 1970, datain =11101101, dataout =11001110 
simtime = 1974, datain =11101110, dataout =01010101 
simtime = 1978, datain =11101111, dataout =00101000 
simtime = 1982, datain =11110000, dataout =11011111 
simtime = 1986, datain =11110001, dataout =10001100 
simtime = 1990, datain =11110010, dataout =10100001 
simtime = 1994, datain =11110011, dataout =10001001 
simtime = 1998, datain =11110100, dataout =00001101 
simtime = 2002, datain =11110101, dataout =10111111 
simtime = 2006, datain =11110110, dataout =11100110 
simtime = 2010, datain =11110111, dataout =01000010 
simtime = 2014, datain =11111000, dataout =01101000 
simtime = 2018, datain =11111001, dataout =01000001 
simtime = 2022, datain =11111010, dataout =10011001 
simtime = 2026, datain =11111011, dataout =00101101 
simtime = 2030, datain =11111100, dataout =00001111 
simtime = 2034, datain =11111101, dataout =10110000 
simtime = 2038, datain =11111110, dataout =01010100 
simtime = 2042, datain =11111111, dataout =10111011 
simtime = 2046, datain =00000000, dataout =00010110 
